[05-Aug-2016 16:54:43 UTC] PHP Notice:  Use of undefined constant BB_PATH_LANGS - assumed 'BB_PATH_LANGS' in C:\xampp\htdocs\BoxBilling\bb-library\Box\Translate.php on line 78
[05-Aug-2016 16:54:43 UTC] PHP Stack trace:
[05-Aug-2016 16:54:43 UTC] PHP   1. {main}() C:\xampp\htdocs\BoxBilling\install\index.php:0
[05-Aug-2016 16:54:43 UTC] PHP   2. Box_Installer->run() C:\xampp\htdocs\BoxBilling\install\index.php:466
[05-Aug-2016 16:54:43 UTC] PHP   3. Box_Installer->generateEmailTemplates() C:\xampp\htdocs\BoxBilling\install\index.php:117
[05-Aug-2016 16:54:43 UTC] PHP   4. Box_Installer->{closure:C:\xampp\htdocs\BoxBilling\bb-di.php:327-339}() C:\xampp\htdocs\BoxBilling\install\index.php:458
[05-Aug-2016 16:54:43 UTC] PHP   5. Box_Translate->setup() C:\xampp\htdocs\BoxBilling\bb-di.php:337
[05-Aug-2016 16:54:44 UTC] PHP Notice:  A session had already been started - ignoring session_start() in C:\xampp\htdocs\BoxBilling\bb-library\Box\Session.php on line 37
[05-Aug-2016 16:54:44 UTC] PHP Stack trace:
[05-Aug-2016 16:54:44 UTC] PHP   1. {main}() C:\xampp\htdocs\BoxBilling\install\index.php:0
[05-Aug-2016 16:54:44 UTC] PHP   2. Box_Installer->run() C:\xampp\htdocs\BoxBilling\install\index.php:466
[05-Aug-2016 16:54:44 UTC] PHP   3. Box_Installer->generateEmailTemplates() C:\xampp\htdocs\BoxBilling\install\index.php:117
[05-Aug-2016 16:54:44 UTC] PHP   4. Box\Mod\Email\Service->templateBatchGenerate() C:\xampp\htdocs\BoxBilling\install\index.php:460
[05-Aug-2016 16:54:44 UTC] PHP   5. Box\Mod\Email\Service->templateCreate() C:\xampp\htdocs\BoxBilling\bb-modules\Email\Service.php:507
[05-Aug-2016 16:54:44 UTC] PHP   6. Pimple->offsetGet() C:\xampp\htdocs\BoxBilling\bb-modules\Email\Service.php:477
[05-Aug-2016 16:54:44 UTC] PHP   7. Box_Installer->{closure:C:\xampp\htdocs\BoxBilling\bb-di.php:19-41}() C:\xampp\htdocs\BoxBilling\bb-vendor\pimple\pimple\lib\Pimple.php:113
[05-Aug-2016 16:54:44 UTC] PHP   8. Pimple->offsetGet() C:\xampp\htdocs\BoxBilling\bb-vendor\pimple\pimple\lib\Pimple.php:29
[05-Aug-2016 16:54:44 UTC] PHP   9. Box_Installer->{closure:C:\xampp\htdocs\BoxBilling\bb-di.php:137-137}() C:\xampp\htdocs\BoxBilling\bb-vendor\pimple\pimple\lib\Pimple.php:113
[05-Aug-2016 16:54:44 UTC] PHP  10. Box_Authorization->__construct() C:\xampp\htdocs\BoxBilling\bb-di.php:137
[05-Aug-2016 16:54:44 UTC] PHP  11. Pimple->offsetGet() C:\xampp\htdocs\BoxBilling\bb-di.php:22
[05-Aug-2016 16:54:44 UTC] PHP  12. Box_Installer->{closure:C:\xampp\htdocs\BoxBilling\bb-di.php:122-125}() C:\xampp\htdocs\BoxBilling\bb-vendor\pimple\pimple\lib\Pimple.php:113
[05-Aug-2016 16:54:44 UTC] PHP  13. Box_Session->__construct() C:\xampp\htdocs\BoxBilling\bb-di.php:124
[05-Aug-2016 16:54:44 UTC] PHP  14. session_start() C:\xampp\htdocs\BoxBilling\bb-library\Box\Session.php:37
